<?xml version="1.0" encoding="UTF-8" standalone="no"?>
<!-- Created with Inkscape (http://www.inkscape.org/) -->

<svg
   xmlns:osb="http://www.openswatchbook.org/uri/2009/osb"
   xmlns:dc="http://purl.org/dc/elements/1.1/"
   xmlns:cc="http://creativecommons.org/ns#"
   xmlns:rdf="http://www.w3.org/1999/02/22-rdf-syntax-ns#"
   xmlns:svg="http://www.w3.org/2000/svg"
   xmlns="http://www.w3.org/2000/svg"
   xmlns:xlink="http://www.w3.org/1999/xlink"
   xmlns:sodipodi="http://sodipodi.sourceforge.net/DTD/sodipodi-0.dtd"
   xmlns:inkscape="http://www.inkscape.org/namespaces/inkscape"
   width="107.3938"
   height="107.6651"
   id="svg3642"
   sodipodi:version="0.32"
   inkscape:version="0.92.4 5da689c313, 2019-01-14"
   sodipodi:docname="tooltip.svg"
   inkscape:output_extension="org.inkscape.output.svgz.inkscape"
   version="1.0"
   viewBox="0 0 107.3938 107.6651">
  <sodipodi:namedview
     id="base"
     pagecolor="#919191"
     bordercolor="#666666"
     borderopacity="1.0"
     inkscape:pageopacity="0"
     inkscape:pageshadow="2"
     inkscape:zoom="10.86116"
     inkscape:cx="57.177237"
     inkscape:cy="34.348919"
     inkscape:current-layer="layer1"
     showgrid="true"
     inkscape:grid-bbox="true"
     inkscape:document-units="px"
     inkscape:window-width="1555"
     inkscape:window-height="804"
     inkscape:window-x="174"
     inkscape:window-y="241"
     width="148px"
     height="148px"
     objecttolerance="23"
     gridtolerance="10"
     guidetolerance="25"
     showguides="true"
     inkscape:guide-bbox="true"
     inkscape:window-maximized="0"
     fit-margin-top="10"
     fit-margin-left="10"
     fit-margin-right="10"
     fit-margin-bottom="10"
     inkscape:snap-bbox="true"
     inkscape:showpageshadow="false"
     inkscape:bbox-nodes="true"
     inkscape:snap-global="true"
     inkscape:snap-grids="false"
     inkscape:snap-to-guides="false"
     inkscape:pagecheckerboard="true"
     inkscape:bbox-paths="true">
    <inkscape:grid
       type="xygrid"
       id="grid6589"
       enabled="false"
       originx="11.872318"
       originy="-53.658959" />
  </sodipodi:namedview>
  <defs
     id="defs3644">
    <linearGradient
       id="linearGradient949"
       inkscape:collect="always">
      <stop
         id="stop943"
         offset="0"
         style="stop-color:#000000;stop-opacity:0.40796703" />
      <stop
         style="stop-color:#000000;stop-opacity:0.22527473"
         offset="0.36959583"
         id="stop945" />
      <stop
         id="stop947"
         offset="1"
         style="stop-color:#000000;stop-opacity:0.01960784" />
    </linearGradient>
    <linearGradient
       id="linearGradient941"
       inkscape:collect="always">
      <stop
         id="stop937"
         offset="0"
         style="stop-color:#000000;stop-opacity:0.40796703" />
      <stop
         id="stop939"
         offset="1"
         style="stop-color:#000000;stop-opacity:0" />
    </linearGradient>
    <linearGradient
       id="linearGradient1008"
       osb:paint="solid">
      <stop
         style="stop-color:#000000;stop-opacity:1;"
         offset="0"
         id="stop1006" />
    </linearGradient>
    <linearGradient
       id="linearGradient996"
       osb:paint="solid">
      <stop
         style="stop-color:#000000;stop-opacity:1;"
         offset="0"
         id="stop994" />
    </linearGradient>
    <linearGradient
       id="linearGradient990"
       osb:paint="solid">
      <stop
         style="stop-color:#000000;stop-opacity:1;"
         offset="0"
         id="stop988" />
    </linearGradient>
    <linearGradient
       id="linearGradient983"
       osb:paint="solid">
      <stop
         style="stop-color:#000000;stop-opacity:1;"
         offset="0"
         id="stop981" />
    </linearGradient>
    <linearGradient
       id="linearGradient977"
       osb:paint="solid">
      <stop
         style="stop-color:#000000;stop-opacity:1;"
         offset="0"
         id="stop975" />
    </linearGradient>
    <linearGradient
       id="linearGradient1077"
       osb:paint="solid">
      <stop
         style="stop-color:#121212;stop-opacity:0.90196079;"
         offset="0"
         id="stop1075" />
    </linearGradient>
    <linearGradient
       id="edge"
       osb:paint="solid">
      <stop
         style="stop-color:#7c7c7c;stop-opacity:1;"
         offset="0"
         id="stop4738-3" />
    </linearGradient>
    <linearGradient
       inkscape:collect="always"
       xlink:href="#linearGradient1077"
       id="linearGradient1175"
       x1="141.21793"
       y1="336.11887"
       x2="157.21793"
       y2="336.11887"
       gradientUnits="userSpaceOnUse"
       gradientTransform="translate(42.03448,-5.9299934)" />
    <linearGradient
       inkscape:collect="always"
       xlink:href="#linearGradient941"
       id="linearGradient1346"
       x1="276.3504"
       y1="331.43997"
       x2="286.14944"
       y2="331.43997"
       gradientUnits="userSpaceOnUse"
       gradientTransform="matrix(0.8,0,0,1.4545455,90.371292,-147.54586)" />
    <linearGradient
       inkscape:collect="always"
       xlink:href="#linearGradient1077"
       id="linearGradient911"
       gradientUnits="userSpaceOnUse"
       gradientTransform="matrix(1,0,0,0.66666669,-527.32885,418.09198)"
       x1="328.21454"
       y1="-169.98384"
       x2="344.21454"
       y2="-169.98384" />
    <linearGradient
       inkscape:collect="always"
       xlink:href="#linearGradient1077"
       id="linearGradient943"
       gradientUnits="userSpaceOnUse"
       gradientTransform="matrix(0.3125,0,0,0.3125,156.00072,209.57358)"
       x1="141.21793"
       y1="336.11887"
       x2="157.21793"
       y2="336.11887" />
    <linearGradient
       id="activeborder"
       osb:paint="solid">
      <stop
         style="stop-color:#121212;stop-opacity:0.47058824;"
         offset="0"
         id="stop880" />
    </linearGradient>
    <linearGradient
       osb:paint="solid"
       id="fill">
      <stop
         id="stop929"
         offset="0"
         style="stop-color:#121212;stop-opacity:0.90196079;" />
    </linearGradient>
    <linearGradient
       inkscape:collect="always"
       xlink:href="#linearGradient941"
       id="linearGradient932"
       gradientUnits="userSpaceOnUse"
       gradientTransform="matrix(0.8,0,0,1.4545455,90.371292,-147.54586)"
       x1="276.3504"
       y1="331.43997"
       x2="286.14944"
       y2="331.43997" />
    <linearGradient
       inkscape:collect="always"
       xlink:href="#linearGradient941"
       id="linearGradient942"
       gradientUnits="userSpaceOnUse"
       gradientTransform="matrix(0.8,0,0,1.4545455,90.371292,-147.54586)"
       x1="276.3504"
       y1="331.43997"
       x2="286.14944"
       y2="331.43997" />
    <linearGradient
       inkscape:collect="always"
       xlink:href="#linearGradient941"
       id="linearGradient950"
       gradientUnits="userSpaceOnUse"
       gradientTransform="matrix(0.8,0,0,1.4545455,90.371292,-147.54586)"
       x1="276.3504"
       y1="331.43997"
       x2="286.14944"
       y2="331.43997" />
    <radialGradient
       inkscape:collect="always"
       xlink:href="#linearGradient949"
       id="radialGradient962"
       cx="289.09644"
       cy="326.18997"
       fx="289.09644"
       fy="326.18997"
       r="4"
       gradientUnits="userSpaceOnUse"
       gradientTransform="matrix(3.2500013,2.777294e-7,-2.7772929e-7,3.25,-679.43398,-745.92607)" />
    <radialGradient
       inkscape:collect="always"
       xlink:href="#linearGradient949"
       id="radialGradient981"
       gradientUnits="userSpaceOnUse"
       gradientTransform="matrix(3.2500013,-2.777294e-7,-2.7772929e-7,-3.25,-679.43398,1406.3086)"
       cx="289.09644"
       cy="326.18997"
       fx="289.09644"
       fy="326.18997"
       r="4" />
    <radialGradient
       inkscape:collect="always"
       xlink:href="#linearGradient949"
       id="radialGradient993"
       gradientUnits="userSpaceOnUse"
       gradientTransform="matrix(-3.2500013,2.777294e-7,2.7772929e-7,3.25,1167.766,-746.00221)"
       cx="289.09644"
       cy="326.18997"
       fx="289.09644"
       fy="326.18997"
       r="4" />
    <radialGradient
       inkscape:collect="always"
       xlink:href="#linearGradient949"
       id="radialGradient997"
       gradientUnits="userSpaceOnUse"
       gradientTransform="matrix(-3.2500013,-2.777294e-7,2.7772929e-7,-3.25,1167.6918,1406.3086)"
       cx="289.09644"
       cy="326.18997"
       fx="289.09644"
       fy="326.18997"
       r="4" />
    <linearGradient
       inkscape:collect="always"
       xlink:href="#linearGradient1077"
       id="linearGradient918"
       gradientUnits="userSpaceOnUse"
       gradientTransform="matrix(1,0,0,0.66666669,-527.32885,418.09198)"
       x1="328.21454"
       y1="-169.98384"
       x2="344.21454"
       y2="-169.98384" />
    <linearGradient
       inkscape:collect="always"
       xlink:href="#linearGradient1077"
       id="linearGradient926"
       gradientUnits="userSpaceOnUse"
       gradientTransform="matrix(1,0,0,0.66666669,-527.32885,418.09198)"
       x1="328.21454"
       y1="-169.98384"
       x2="344.21454"
       y2="-169.98384" />
    <linearGradient
       inkscape:collect="always"
       xlink:href="#linearGradient1077"
       id="linearGradient934"
       gradientUnits="userSpaceOnUse"
       gradientTransform="matrix(1,0,0,0.66666669,-527.32885,418.09198)"
       x1="328.21454"
       y1="-169.98384"
       x2="344.21454"
       y2="-169.98384" />
    <linearGradient
       inkscape:collect="always"
       xlink:href="#linearGradient1077"
       id="linearGradient957"
       gradientUnits="userSpaceOnUse"
       gradientTransform="matrix(0.3125,0,0,0.3125,156.00072,209.57358)"
       x1="141.21793"
       y1="336.11887"
       x2="157.21793"
       y2="336.11887" />
    <linearGradient
       inkscape:collect="always"
       xlink:href="#linearGradient1077"
       id="linearGradient965"
       gradientUnits="userSpaceOnUse"
       gradientTransform="matrix(0.3125,0,0,0.3125,156.00072,209.57358)"
       x1="141.21793"
       y1="336.11887"
       x2="157.21793"
       y2="336.11887" />
    <linearGradient
       inkscape:collect="always"
       xlink:href="#linearGradient1077"
       id="linearGradient973"
       gradientUnits="userSpaceOnUse"
       gradientTransform="matrix(0.3125,0,0,0.3125,156.00072,209.57358)"
       x1="141.21793"
       y1="336.11887"
       x2="157.21793"
       y2="336.11887" />
    <linearGradient
       inkscape:collect="always"
       xlink:href="#activeborder"
       id="linearGradient979"
       x1="-199.1143"
       y1="302.76944"
       x2="-183.1143"
       y2="302.76944"
       gradientUnits="userSpaceOnUse" />
    <linearGradient
       inkscape:collect="always"
       xlink:href="#activeborder"
       id="linearGradient985"
       x1="200.13132"
       y1="314.61075"
       x2="205.13132"
       y2="314.61075"
       gradientUnits="userSpaceOnUse" />
    <linearGradient
       inkscape:collect="always"
       xlink:href="#activeborder"
       id="linearGradient992"
       x1="-199.1143"
       y1="302.76944"
       x2="-183.1143"
       y2="302.76944"
       gradientUnits="userSpaceOnUse" />
    <linearGradient
       inkscape:collect="always"
       xlink:href="#activeborder"
       id="linearGradient998"
       x1="-199.1143"
       y1="302.76944"
       x2="-183.1143"
       y2="302.76944"
       gradientUnits="userSpaceOnUse" />
    <linearGradient
       inkscape:collect="always"
       xlink:href="#activeborder"
       id="linearGradient1000"
       x1="200.13132"
       y1="314.61075"
       x2="205.13132"
       y2="314.61075"
       gradientUnits="userSpaceOnUse" />
    <linearGradient
       inkscape:collect="always"
       xlink:href="#activeborder"
       id="linearGradient1002"
       x1="-199.1143"
       y1="302.76944"
       x2="-183.1143"
       y2="302.76944"
       gradientUnits="userSpaceOnUse" />
    <linearGradient
       inkscape:collect="always"
       xlink:href="#activeborder"
       id="linearGradient1004"
       x1="200.13132"
       y1="314.61075"
       x2="205.13132"
       y2="314.61075"
       gradientUnits="userSpaceOnUse" />
    <linearGradient
       inkscape:collect="always"
       xlink:href="#activeborder"
       id="linearGradient1010"
       x1="200.13132"
       y1="314.61075"
       x2="205.13132"
       y2="314.61075"
       gradientUnits="userSpaceOnUse" />
  </defs>
  <metadata
     id="metadata3647">
    <rdf:RDF>
      <cc:Work
         rdf:about="">
        <dc:format>image/svg+xml</dc:format>
        <dc:type
           rdf:resource="http://purl.org/dc/dcmitype/StillImage" />
        <dc:title />
      </cc:Work>
      <cc:Work
         rdf:about="">
        <dc:format>image/svg+xml</dc:format>
        <dc:type
           rdf:resource="http://purl.org/dc/dcmitype/StillImage" />
      </cc:Work>
      <cc:Work
         rdf:about="">
        <dc:format>image/svg+xml</dc:format>
        <dc:type
           rdf:resource="http://purl.org/dc/dcmitype/StillImage" />
      </cc:Work>
    </rdf:RDF>
  </metadata>
  <g
     inkscape:groupmode="layer"
     inkscape:label="Layer 1"
     id="layer1"
     transform="translate(-171.12768,-256.6759)">
    <rect
       style="fill:url(#linearGradient1175);fill-opacity:1;stroke:none;stroke-width:0.32000008"
       id="center"
       width="16"
       height="16"
       x="183.25241"
       y="322.18887" />
    <rect
       style="opacity:1;fill:#06663c;fill-opacity:1;fill-rule:nonzero;stroke:none;stroke-width:6.44424582;stroke-linecap:square;stroke-miterlimit:4;stroke-dasharray:none;stroke-dashoffset:0;stroke-opacity:1"
       class="ColorScheme-ViewBackground"
       id="mask-center"
       width="16"
       height="16"
       x="206.82976"
       y="267.79321"
       ry="0" />
    <rect
       style="opacity:1;fill:#06663c;fill-opacity:1;fill-rule:nonzero;stroke:none;stroke-width:8.1967144;stroke-linecap:square;stroke-miterlimit:4;stroke-dasharray:none;stroke-dashoffset:0;stroke-opacity:1"
       id="mask-left"
       class="ColorScheme-Background"
       width="5"
       height="16"
       x="201.82976"
       y="267.79321" />
    <rect
       y="267.79321"
       x="222.82976"
       height="16"
       width="5"
       class="ColorScheme-Background"
       id="mask-right"
       style="opacity:1;fill:#06663c;fill-opacity:1;fill-rule:nonzero;stroke:none;stroke-width:8.1967144;stroke-linecap:square;stroke-miterlimit:4;stroke-dasharray:none;stroke-dashoffset:0;stroke-opacity:1" />
    <rect
       style="opacity:1;fill:#06663c;fill-opacity:1;fill-rule:nonzero;stroke:none;stroke-width:8.19671345;stroke-linecap:square;stroke-miterlimit:4;stroke-dasharray:none;stroke-dashoffset:0;stroke-opacity:1"
       class="ColorScheme-Background"
       id="mask-top"
       width="5"
       height="16"
       x="-267.79321"
       y="206.82976"
       transform="rotate(-90)" />
    <rect
       transform="rotate(-90)"
       y="206.82976"
       x="-288.79321"
       height="16"
       width="5"
       class="ColorScheme-Background"
       id="mask-bottom"
       style="opacity:1;fill:#06663c;fill-opacity:1;fill-rule:nonzero;stroke:none;stroke-width:8.19671345;stroke-linecap:square;stroke-miterlimit:4;stroke-dasharray:none;stroke-dashoffset:0;stroke-opacity:1" />
    <rect
       style="opacity:1;fill:#06663c;fill-opacity:1;fill-rule:nonzero;stroke:none;stroke-width:4.58210278;stroke-linecap:square;stroke-miterlimit:4;stroke-dasharray:none;stroke-dashoffset:0;stroke-opacity:1"
       id="mask-bottomleft"
       class="ColorScheme-Background"
       width="5"
       height="5"
       x="-288.79321"
       y="201.82976"
       transform="rotate(-90)" />
    <rect
       transform="rotate(-90)"
       y="201.82976"
       x="-267.79321"
       height="5"
       width="5"
       class="ColorScheme-Background"
       id="mask-topleft"
       style="opacity:1;fill:#06663c;fill-opacity:1;fill-rule:nonzero;stroke:none;stroke-width:4.58210278;stroke-linecap:square;stroke-miterlimit:4;stroke-dasharray:none;stroke-dashoffset:0;stroke-opacity:1" />
    <rect
       style="opacity:1;fill:#06663c;fill-opacity:1;fill-rule:nonzero;stroke:none;stroke-width:4.58210278;stroke-linecap:square;stroke-miterlimit:4;stroke-dasharray:none;stroke-dashoffset:0;stroke-opacity:1"
       id="mask-topright"
       class="ColorScheme-Background"
       width="5"
       height="5"
       x="-267.79321"
       y="222.82976"
       transform="rotate(-90)" />
    <rect
       transform="rotate(-90)"
       y="222.82976"
       x="-288.79321"
       height="5"
       width="5"
       class="ColorScheme-Background"
       id="mask-bottomright"
       style="opacity:1;fill:#06663c;fill-opacity:1;fill-rule:nonzero;stroke:none;stroke-width:4.58210278;stroke-linecap:square;stroke-miterlimit:4;stroke-dasharray:none;stroke-dashoffset:0;stroke-opacity:1" />
    <rect
       style="opacity:1;fill:none;fill-opacity:1;stroke-width:0.63999999"
       class="ColorScheme-Background"
       width="32"
       y="314.19131"
       x="228.12891"
       height="32"
       id="shadow-center" />
    <g
       id="top"
       transform="translate(0.13810641,14.919431)">
      <rect
         transform="scale(-1,1)"
         style="fill:url(#linearGradient918);fill-opacity:1;stroke:none;stroke-width:0.17888547"
         id="rect912"
         width="16"
         height="5"
         x="-199.1143"
         y="302.26944" />
      <rect
         y="302.26944"
         x="-199.1143"
         height="1"
         width="16"
         id="rect914"
         style="fill:url(#linearGradient992);fill-opacity:1.0;stroke:none;stroke-width:0.08000001"
         transform="scale(-1,1)" />
    </g>
    <g
       id="shadow-right"
       transform="translate(-46.322714,-4.3573358)">
      <path
         inkscape:connector-curvature="0"
         style="opacity:0.61799999;fill:url(#linearGradient1346);fill-opacity:1.0;stroke:none;stroke-width:0.84327406"
         d="m 311.45162,350.54862 h 8 v -32 h -8 z"
         id="path2666" />
      <path
         id="path1911"
         d="m 306.45162,350.54862 h 5 v -32 h -5 z"
         style="opacity:0.61799999;fill:none;fill-opacity:1;stroke:none;stroke-width:0.66666663"
         inkscape:connector-curvature="0" />
    </g>
    <g
       id="shadow-bottom"
       transform="rotate(90,269.46894,309.2086)">
      <path
         id="path926"
         d="m 311.45162,350.54862 h 8 v -32 h -8 z"
         style="opacity:0.61799999;fill:url(#linearGradient932);fill-opacity:1;stroke:none;stroke-width:0.84327406"
         inkscape:connector-curvature="0" />
      <path
         inkscape:connector-curvature="0"
         style="opacity:0.61799999;fill:none;fill-opacity:1;stroke:none;stroke-width:0.66666663"
         d="m 306.45162,350.54862 h 5 v -32 h -5 z"
         id="path928" />
    </g>
    <g
       transform="matrix(1,0,0,-1,0.1381073,645.45831)"
       id="bottom">
      <rect
         y="302.26944"
         x="-199.1143"
         height="5"
         width="16"
         id="rect905"
         style="fill:url(#linearGradient911);fill-opacity:1;stroke:none;stroke-width:0.17888547"
         transform="scale(-1,1)" />
      <rect
         transform="scale(-1,1)"
         style="fill:url(#linearGradient998);fill-opacity:1.0;stroke:none;stroke-width:0.08000001"
         id="rect907"
         width="16"
         height="1"
         x="-199.1143"
         y="302.26944" />
    </g>
    <rect
       y="-199.25241"
       x="338.18887"
       height="2"
       width="5"
       id="hint-bottom-margin"
       style="fill:#ff00ff;fill-opacity:1;stroke:none;stroke-width:0.6455003"
       transform="rotate(90)" />
    <g
       id="left"
       transform="matrix(0,1,1,0,-124.01703,139.07457)">
      <rect
         transform="scale(-1,1)"
         style="fill:url(#linearGradient934);fill-opacity:1;stroke:none;stroke-width:0.17888547"
         id="rect928"
         width="16"
         height="5"
         x="-199.1143"
         y="302.26944" />
      <rect
         y="302.26944"
         x="-199.1143"
         height="1"
         width="16"
         id="rect930"
         style="fill:url(#linearGradient1002);fill-opacity:1.0;stroke:none;stroke-width:0.08000001"
         transform="scale(-1,1)" />
    </g>
    <rect
       transform="rotate(90)"
       style="fill:#ff00ff;fill-opacity:1;stroke:none;stroke-width:0.64550048"
       id="hint-left-margin"
       width="2"
       height="5"
       x="336.18887"
       y="-183.25241" />
    <rect
       transform="rotate(90)"
       style="fill:#ff00ff;fill-opacity:1;stroke:none;stroke-width:0.81650037"
       id="shadow-hint-bottom-margin"
       width="8"
       height="2"
       x="351.19128"
       y="-230.12892" />
    <rect
       transform="rotate(90)"
       style="fill:#ff00ff;fill-opacity:1;stroke:none;stroke-width:0.81650072"
       id="shadow-hint-right-margin"
       width="2"
       height="8"
       x="344.19128"
       y="-273.12891" />
    <g
       transform="matrix(-1,0,0,1,534.50634,-4.35734)"
       id="shadow-left">
      <path
         id="path936"
         d="m 311.45162,350.54862 h 8 v -32 h -8 z"
         style="opacity:0.61799999;fill:url(#linearGradient942);fill-opacity:1.0;stroke:none;stroke-width:0.84327406"
         inkscape:connector-curvature="0" />
      <path
         inkscape:connector-curvature="0"
         style="opacity:0.61799999;fill:none;fill-opacity:1;stroke:none;stroke-width:0.66666663"
         d="m 306.45162,350.54862 h 5 v -32 h -5 z"
         id="path938" />
    </g>
    <rect
       y="-223.05472"
       x="314.19128"
       height="8"
       width="2"
       id="shadow-hint-left-margin"
       style="fill:#ff00ff;fill-opacity:1;stroke:none;stroke-width:0.81650066"
       transform="rotate(90)" />
    <g
       transform="matrix(0,-1,-1,0,578.75175,620.56676)"
       id="shadow-top">
      <path
         inkscape:connector-curvature="0"
         style="opacity:0.61799999;fill:url(#linearGradient950);fill-opacity:1.0;stroke:none;stroke-width:0.84327406"
         d="m 311.45162,350.54862 h 8 v -32 h -8 z"
         id="path944" />
      <path
         id="path946"
         d="m 306.45162,350.54862 h 5 v -32 h -5 z"
         style="opacity:0.61799999;fill:none;fill-opacity:1;stroke:none;stroke-width:0.66666663"
         inkscape:connector-curvature="0" />
    </g>
    <rect
       y="-260.20312"
       x="301.11514"
       height="2"
       width="8"
       id="shadow-hint-top-margin"
       style="fill:#ff00ff;fill-opacity:1;stroke:none;stroke-width:0.81650054"
       transform="rotate(90)" />
    <path
       style="opacity:1;fill:url(#radialGradient962);fill-opacity:1.0;stroke:none;stroke-width:0.77923936;stroke-linecap:round;stroke-miterlimit:4;stroke-dasharray:none;stroke-opacity:1"
       d="m 260.12891,301.19128 v 8 h 5 v 5 h 8 v -13 z"
       id="shadow-topright"
       inkscape:connector-curvature="0" />
    <path
       inkscape:connector-curvature="0"
       id="shadow-bottomright"
       d="m 260.12891,359.19128 v -8 h 5 v -5 h 8 v 13 z"
       style="opacity:1;fill:url(#radialGradient981);fill-opacity:1.0;stroke:none;stroke-width:0.77923936;stroke-linecap:round;stroke-miterlimit:4;stroke-dasharray:none;stroke-opacity:1" />
    <path
       inkscape:connector-curvature="0"
       id="shadow-topleft"
       d="m 228.20313,301.11514 v 8 h -5 v 5 h -8 v -13 z"
       style="opacity:1;fill:url(#radialGradient993);fill-opacity:1.0;stroke:none;stroke-width:0.77923936;stroke-linecap:round;stroke-miterlimit:4;stroke-dasharray:none;stroke-opacity:1" />
    <path
       inkscape:connector-curvature="0"
       id="shadow-bottomleft"
       d="m 228.12892,359.19128 v -8 h -5 v -5 h -8 v 13 z"
       style="opacity:1;fill:url(#radialGradient997);fill-opacity:1.0;stroke:none;stroke-width:0.77923936;stroke-linecap:round;stroke-miterlimit:4;stroke-dasharray:none;stroke-opacity:1" />
    <rect
       transform="rotate(90)"
       style="fill:#ff00ff;fill-opacity:1;stroke:none;stroke-width:0.64550036"
       id="hint-top-margin"
       width="5"
       height="2"
       x="317.18887"
       y="-185.25241" />
    <g
       id="right"
       transform="matrix(0,-1,-1,0,506.52185,521.30317)">
      <rect
         transform="scale(-1,1)"
         style="fill:url(#linearGradient926);fill-opacity:1;stroke:none;stroke-width:0.17888547"
         id="rect920"
         width="16"
         height="5"
         x="-199.1143"
         y="302.26944" />
      <rect
         y="302.26944"
         x="-199.1143"
         height="1"
         width="16"
         id="rect922"
         style="fill:url(#linearGradient979);fill-opacity:1.0;stroke:none;stroke-width:0.08000001"
         transform="scale(-1,1)" />
    </g>
    <rect
       y="-204.25241"
       x="322.18887"
       height="5"
       width="2"
       id="hint-right-margin"
       style="fill:#ff00ff;fill-opacity:1;stroke:none;stroke-width:0.64550048"
       transform="rotate(90)" />
    <g
       id="topright"
       transform="translate(-0.8789097,5.0781164)">
      <rect
         y="312.11075"
         x="200.13132"
         height="5"
         width="5"
         id="rect941"
         style="fill:url(#linearGradient943);fill-opacity:1;stroke:none;stroke-width:0.10000003" />
      <path
         inkscape:connector-curvature="0"
         id="rect938"
         d="m 200.13132,312.11075 v 1 h 4 v 4 h 1 v -5 z"
         style="fill:url(#linearGradient985);fill-opacity:1.0;stroke:none;stroke-width:0.10000003" />
    </g>
    <g
       transform="matrix(-1,0,0,1,383.38373,5.0781236)"
       id="topleft">
      <rect
         style="fill:url(#linearGradient957);fill-opacity:1;stroke:none;stroke-width:0.10000003"
         id="rect951"
         width="5"
         height="5"
         x="200.13132"
         y="312.11075" />
      <path
         style="fill:url(#linearGradient1004);fill-opacity:1.0;stroke:none;stroke-width:0.10000003"
         d="m 200.13132,312.11075 v 1 h 4 v 4 h 1 v -5 z"
         id="path953"
         inkscape:connector-curvature="0" />
    </g>
    <g
       transform="matrix(1,0,0,-1,-0.8789097,655.29962)"
       id="bottomright">
      <rect
         style="fill:url(#linearGradient965);fill-opacity:1;stroke:none;stroke-width:0.10000003"
         id="rect959"
         width="5"
         height="5"
         x="200.13132"
         y="312.11075" />
      <path
         style="fill:url(#linearGradient1010);fill-opacity:1.0;stroke:none;stroke-width:0.10000003"
         d="m 200.13132,312.11075 v 1 h 4 v 4 h 1 v -5 z"
         id="path961"
         inkscape:connector-curvature="0" />
    </g>
    <g
       transform="rotate(-180,191.69187,327.64981)"
       id="bottomleft">
      <rect
         style="fill:url(#linearGradient973);fill-opacity:1;stroke:none;stroke-width:0.10000003"
         id="rect967"
         width="5"
         height="5"
         x="200.13132"
         y="312.11075" />
      <path
         style="fill:url(#linearGradient1000);fill-opacity:1.0;stroke:none;stroke-width:0.10000003"
         d="m 200.13132,312.11075 v 1 h 4 v 4 h 1 v -5 z"
         id="path969"
         inkscape:connector-curvature="0" />
    </g>
  </g>
</svg>
