<?xml version="1.0" encoding="UTF-8" standalone="no"?>
<!-- Created with Inkscape (http://www.inkscape.org/) -->

<svg
   xmlns:osb="http://www.openswatchbook.org/uri/2009/osb"
   xmlns:dc="http://purl.org/dc/elements/1.1/"
   xmlns:cc="http://creativecommons.org/ns#"
   xmlns:rdf="http://www.w3.org/1999/02/22-rdf-syntax-ns#"
   xmlns:svg="http://www.w3.org/2000/svg"
   xmlns="http://www.w3.org/2000/svg"
   xmlns:xlink="http://www.w3.org/1999/xlink"
   xmlns:sodipodi="http://sodipodi.sourceforge.net/DTD/sodipodi-0.dtd"
   xmlns:inkscape="http://www.inkscape.org/namespaces/inkscape"
   width="32"
   height="32"
   viewBox="0 0 32 32"
   version="1.1"
   id="svg2031"
   inkscape:version="0.92.4 5da689c313, 2019-01-14"
   sodipodi:docname="restore.svg">
  <defs
     id="defs2025">
    <linearGradient
       id="linearGradient888"
       osb:paint="solid">
      <stop
         style="stop-color:#7c7c7c;stop-opacity:1;"
         offset="0"
         id="stop886" />
    </linearGradient>
    <linearGradient
       id="grey156"
       osb:paint="solid">
      <stop
         style="stop-color:#9c9c9c;stop-opacity:1;"
         offset="0"
         id="stop868" />
    </linearGradient>
    <linearGradient
       inkscape:collect="always"
       xlink:href="#grey156"
       id="linearGradient872"
       x1="293.20001"
       y1="-24.85"
       x2="310.20001"
       y2="-24.85"
       gradientUnits="userSpaceOnUse" />
    <linearGradient
       inkscape:collect="always"
       xlink:href="#grey156"
       id="linearGradient874"
       x1="-24.35"
       y1="-309.70001"
       x2="-2.3500004"
       y2="-309.70001"
       gradientUnits="userSpaceOnUse" />
    <linearGradient
       inkscape:collect="always"
       xlink:href="#grey156"
       id="linearGradient876"
       x1="293.20001"
       y1="-1.8469999"
       x2="310.20001"
       y2="-1.8469999"
       gradientUnits="userSpaceOnUse" />
    <linearGradient
       inkscape:collect="always"
       xlink:href="#grey156"
       id="linearGradient878"
       x1="293.20001"
       y1="-24.85"
       x2="310.20001"
       y2="-24.85"
       gradientUnits="userSpaceOnUse" />
    <linearGradient
       inkscape:collect="always"
       xlink:href="#grey156"
       id="linearGradient880"
       x1="-24.35"
       y1="-309.70001"
       x2="-2.3500004"
       y2="-309.70001"
       gradientUnits="userSpaceOnUse" />
    <linearGradient
       inkscape:collect="always"
       xlink:href="#grey156"
       id="linearGradient882"
       x1="293.20001"
       y1="-1.8469999"
       x2="310.20001"
       y2="-1.8469999"
       gradientUnits="userSpaceOnUse" />
    <linearGradient
       inkscape:collect="always"
       xlink:href="#grey156"
       id="linearGradient884"
       x1="3.3499999"
       y1="293.70001"
       x2="23.35"
       y2="293.70001"
       gradientUnits="userSpaceOnUse" />
    <linearGradient
       inkscape:collect="always"
       xlink:href="#grey156"
       id="linearGradient890"
       x1="293.20001"
       y1="-24.85"
       x2="310.20001"
       y2="-24.85"
       gradientUnits="userSpaceOnUse" />
    <linearGradient
       inkscape:collect="always"
       xlink:href="#grey156"
       id="linearGradient892"
       x1="293.20001"
       y1="-1.8469999"
       x2="310.20001"
       y2="-1.8469999"
       gradientUnits="userSpaceOnUse" />
    <linearGradient
       inkscape:collect="always"
       xlink:href="#grey156"
       id="linearGradient894"
       x1="-24.35"
       y1="-309.70001"
       x2="-2.3500004"
       y2="-309.70001"
       gradientUnits="userSpaceOnUse" />
  </defs>
  <sodipodi:namedview
     id="base"
     pagecolor="#343434"
     bordercolor="#666666"
     borderopacity="1.0"
     inkscape:pageopacity="0"
     inkscape:pageshadow="2"
     inkscape:zoom="22.401143"
     inkscape:cx="-34.156788"
     inkscape:cy="41.616091"
     inkscape:document-units="px"
     inkscape:current-layer="layer1"
     showgrid="false"
     units="px"
     inkscape:pagecheckerboard="false"
     inkscape:showpageshadow="false"
     inkscape:window-width="1101"
     inkscape:window-height="710"
     inkscape:window-x="598"
     inkscape:window-y="210"
     inkscape:window-maximized="0" />
  <metadata
     id="metadata2028">
    <rdf:RDF>
      <cc:Work
         rdf:about="">
        <dc:format>image/svg+xml</dc:format>
        <dc:type
           rdf:resource="http://purl.org/dc/dcmitype/StillImage" />
        <dc:title />
      </cc:Work>
    </rdf:RDF>
  </metadata>
  <g
     inkscape:label="Layer 1"
     inkscape:groupmode="layer"
     id="layer1"
     transform="translate(0,-288.5)">
    <g
       id="active-center"
       transform="translate(-3.03,-4.293)">
      <g
         transform="translate(-50.38,-42.32)"
         id="g1629">
        <g
           id="g1589">
          <rect
             y="292.2"
             x="1.347"
             height="18"
             width="24"
             id="rect3862"
             style="opacity:1;fill:#59c533;fill-opacity:0.2103;fill-rule:nonzero;stroke:none;stroke-width:0.2419;stroke-linecap:square;stroke-linejoin:round;stroke-miterlimit:4;stroke-dasharray:none;stroke-dashoffset:0;stroke-opacity:1" />
        </g>
        <rect
           style="opacity:0.924;fill:#020001;fill-opacity:1;fill-rule:evenodd;stroke:none;stroke-width:1.0001;stroke-linecap:round;stroke-linejoin:miter;stroke-miterlimit:4;stroke-dasharray:none;stroke-dashoffset:0;stroke-opacity:0.8785;paint-order:normal"
           id="rect840"
           width="24"
           height="1"
           x="1.347"
           y="292.2" />
        <rect
           y="293.2"
           x="3.35"
           height="1"
           width="20"
           id="rect842"
           style="opacity:0.924;fill:url(#linearGradient884);fill-opacity:1;fill-rule:evenodd;stroke:none;stroke-width:1.0001;stroke-linecap:round;stroke-linejoin:miter;stroke-miterlimit:4;stroke-dasharray:none;stroke-dashoffset:0;stroke-opacity:0.8785;paint-order:normal" />
        <rect
           style="opacity:0.924;fill:url(#linearGradient878);fill-opacity:1;fill-rule:evenodd;stroke:none;stroke-width:1.0002;stroke-linecap:round;stroke-linejoin:miter;stroke-miterlimit:4;stroke-dasharray:none;stroke-dashoffset:0;stroke-opacity:0.8785;paint-order:normal"
           id="rect1546"
           width="17"
           height="1"
           x="293.2"
           y="-25.35"
           transform="rotate(90)" />
        <rect
           transform="rotate(90)"
           y="-2.347"
           x="293.2"
           height="1"
           width="17"
           id="rect1550"
           style="opacity:0.924;fill:url(#linearGradient882);fill-opacity:1;fill-rule:evenodd;stroke:none;stroke-width:1.0002;stroke-linecap:round;stroke-linejoin:miter;stroke-miterlimit:4;stroke-dasharray:none;stroke-dashoffset:0;stroke-opacity:0.8785;paint-order:normal" />
        <rect
           y="-24.35"
           x="293.2"
           height="1"
           width="15"
           id="rect1566"
           style="opacity:0.924;fill:#020001;fill-opacity:1;fill-rule:evenodd;stroke:none;stroke-width:1.0001;stroke-linecap:round;stroke-linejoin:miter;stroke-miterlimit:4;stroke-dasharray:none;stroke-dashoffset:0;stroke-opacity:0.8785;paint-order:normal"
           transform="rotate(90)" />
        <rect
           transform="rotate(90)"
           style="opacity:0.924;fill:#020001;fill-opacity:1;fill-rule:evenodd;stroke:none;stroke-width:1.0001;stroke-linecap:round;stroke-linejoin:miter;stroke-miterlimit:4;stroke-dasharray:none;stroke-dashoffset:0;stroke-opacity:0.8785;paint-order:normal"
           id="rect1568"
           width="15"
           height="1"
           x="293.2"
           y="-3.35" />
        <rect
           transform="scale(-1)"
           y="-310.2"
           x="-24.35"
           height="1"
           width="22"
           id="rect1591"
           style="opacity:0.924;fill:url(#linearGradient880);fill-opacity:1;fill-rule:evenodd;stroke:none;stroke-width:1.0001;stroke-linecap:round;stroke-linejoin:miter;stroke-miterlimit:4;stroke-dasharray:none;stroke-dashoffset:0;stroke-opacity:0.8785;paint-order:normal" />
        <rect
           y="-309.2"
           x="-24.36"
           height="1"
           width="22"
           id="rect1593"
           style="opacity:0.924;fill:#020001;fill-opacity:1;fill-rule:evenodd;stroke:none;stroke-width:1.0002;stroke-linecap:round;stroke-linejoin:miter;stroke-miterlimit:4;stroke-dasharray:none;stroke-dashoffset:0;stroke-opacity:0.8785;paint-order:normal"
           transform="scale(-1)" />
      </g>
      <rect
         transform="rotate(45)"
         ry="0"
         rx="0"
         y="206.4"
         x="154"
         height="5.784"
         width="5.784"
         id="rect7559"
         style="opacity:1;fill:none;fill-opacity:1;fill-rule:nonzero;stroke:#e8e8e8;stroke-width:1.75;stroke-linecap:square;stroke-linejoin:miter;stroke-miterlimit:4;stroke-dasharray:none;stroke-dashoffset:0;stroke-opacity:0.729" />
    </g>
    <g
       id="hover-center"
       transform="translate(-3.788,-3.914)">
      <g
         id="g2107"
         transform="translate(-19.05,-42.52)">
        <g
           id="g2089">
          <rect
             style="opacity:1;fill:#4ce117;fill-opacity:0.472;fill-rule:nonzero;stroke:none;stroke-width:0.2419;stroke-linecap:square;stroke-linejoin:round;stroke-miterlimit:4;stroke-dasharray:none;stroke-dashoffset:0;stroke-opacity:1"
             id="rect2087"
             width="24"
             height="18"
             x="1.347"
             y="292.2" />
        </g>
        <rect
           y="292.2"
           x="1.347"
           height="1"
           width="24"
           id="rect2091"
           style="opacity:0.924;fill:#020001;fill-opacity:1;fill-rule:evenodd;stroke:none;stroke-width:1.0001;stroke-linecap:round;stroke-linejoin:miter;stroke-miterlimit:4;stroke-dasharray:none;stroke-dashoffset:0;stroke-opacity:0.8785;paint-order:normal" />
        <rect
           style="opacity:0.924;fill:#c8c8c8;fill-opacity:1;fill-rule:evenodd;stroke:none;stroke-width:1.0001;stroke-linecap:round;stroke-linejoin:miter;stroke-miterlimit:4;stroke-dasharray:none;stroke-dashoffset:0;stroke-opacity:0.8785;paint-order:normal"
           id="rect2093"
           width="20"
           height="1"
           x="3.35"
           y="293.2" />
        <rect
           transform="rotate(90)"
           y="-25.35"
           x="293.2"
           height="1"
           width="17"
           id="rect2095"
           style="opacity:0.924;fill:url(#linearGradient872);fill-opacity:1;fill-rule:evenodd;stroke:none;stroke-width:1.0002;stroke-linecap:round;stroke-linejoin:miter;stroke-miterlimit:4;stroke-dasharray:none;stroke-dashoffset:0;stroke-opacity:0.8785;paint-order:normal" />
        <rect
           style="opacity:0.924;fill:url(#linearGradient876);fill-opacity:1;fill-rule:evenodd;stroke:none;stroke-width:1.0002;stroke-linecap:round;stroke-linejoin:miter;stroke-miterlimit:4;stroke-dasharray:none;stroke-dashoffset:0;stroke-opacity:0.8785;paint-order:normal"
           id="rect2097"
           width="17"
           height="1"
           x="293.2"
           y="-2.347"
           transform="rotate(90)" />
        <rect
           transform="rotate(90)"
           style="opacity:0.924;fill:#020001;fill-opacity:1;fill-rule:evenodd;stroke:none;stroke-width:1.0001;stroke-linecap:round;stroke-linejoin:miter;stroke-miterlimit:4;stroke-dasharray:none;stroke-dashoffset:0;stroke-opacity:0.8785;paint-order:normal"
           id="rect2099"
           width="15"
           height="1"
           x="293.2"
           y="-24.35" />
        <rect
           y="-3.35"
           x="293.2"
           height="1"
           width="15"
           id="rect2101"
           style="opacity:0.924;fill:#020001;fill-opacity:1;fill-rule:evenodd;stroke:none;stroke-width:1.0001;stroke-linecap:round;stroke-linejoin:miter;stroke-miterlimit:4;stroke-dasharray:none;stroke-dashoffset:0;stroke-opacity:0.8785;paint-order:normal"
           transform="rotate(90)" />
        <rect
           style="opacity:0.924;fill:url(#linearGradient874);fill-opacity:1;fill-rule:evenodd;stroke:none;stroke-width:1.0001;stroke-linecap:round;stroke-linejoin:miter;stroke-miterlimit:4;stroke-dasharray:none;stroke-dashoffset:0;stroke-opacity:0.8785;paint-order:normal"
           id="rect2103"
           width="22"
           height="1"
           x="-24.35"
           y="-310.2"
           transform="scale(-1)" />
        <rect
           transform="scale(-1)"
           style="opacity:0.924;fill:#020001;fill-opacity:1;fill-rule:evenodd;stroke:none;stroke-width:1.0002;stroke-linecap:round;stroke-linejoin:miter;stroke-miterlimit:4;stroke-dasharray:none;stroke-dashoffset:0;stroke-opacity:0.8785;paint-order:normal"
           id="rect2105"
           width="22"
           height="1"
           x="-24.36"
           y="-309.2" />
      </g>
      <rect
         transform="rotate(45)"
         style="opacity:1;fill:none;fill-opacity:1;fill-rule:nonzero;stroke:#e8e8e8;stroke-width:1.7499;stroke-linecap:square;stroke-linejoin:miter;stroke-miterlimit:4;stroke-dasharray:none;stroke-dashoffset:0;stroke-opacity:1"
         id="rect2109"
         width="5.605"
         height="5.605"
         x="176"
         y="184.1"
         rx="0"
         ry="0" />
    </g>
    <g
       id="pressed-center"
       transform="translate(-3.409,-4.672)">
      <g
         transform="translate(-50.28,-17.42)"
         id="g1459">
        <g
           id="g1441">
          <rect
             y="292.2"
             x="1.347"
             height="18"
             width="24"
             id="rect1439"
             style="opacity:1;fill:#7c7c7c;fill-opacity:0.472;fill-rule:nonzero;stroke:none;stroke-width:0.2419;stroke-linecap:square;stroke-linejoin:round;stroke-miterlimit:4;stroke-dasharray:none;stroke-dashoffset:0;stroke-opacity:1" />
        </g>
        <rect
           style="opacity:0.924;fill:#020001;fill-opacity:1;fill-rule:evenodd;stroke:none;stroke-width:1.0001;stroke-linecap:round;stroke-linejoin:miter;stroke-miterlimit:4;stroke-dasharray:none;stroke-dashoffset:0;stroke-opacity:0.8785;paint-order:normal"
           id="rect1443"
           width="24"
           height="1"
           x="1.347"
           y="292.2" />
        <rect
           y="293.2"
           x="3.35"
           height="1"
           width="20"
           id="rect1445"
           style="opacity:0.924;fill:#070707;fill-opacity:1;fill-rule:evenodd;stroke:none;stroke-width:1.0001;stroke-linecap:round;stroke-linejoin:miter;stroke-miterlimit:4;stroke-dasharray:none;stroke-dashoffset:0;stroke-opacity:0.8785;paint-order:normal" />
        <rect
           style="opacity:0.924;fill:url(#linearGradient890);fill-opacity:1.0;fill-rule:evenodd;stroke:none;stroke-width:1.0002;stroke-linecap:round;stroke-linejoin:miter;stroke-miterlimit:4;stroke-dasharray:none;stroke-dashoffset:0;stroke-opacity:0.8785;paint-order:normal"
           id="rect1447"
           width="17"
           height="1"
           x="293.2"
           y="-25.35"
           transform="rotate(90)" />
        <rect
           transform="rotate(90)"
           y="-2.347"
           x="293.2"
           height="1"
           width="17"
           id="rect1449"
           style="opacity:0.924;fill:url(#linearGradient892);fill-opacity:1.0;fill-rule:evenodd;stroke:none;stroke-width:1.0002;stroke-linecap:round;stroke-linejoin:miter;stroke-miterlimit:4;stroke-dasharray:none;stroke-dashoffset:0;stroke-opacity:0.8785;paint-order:normal" />
        <rect
           y="-24.35"
           x="293.2"
           height="1"
           width="15"
           id="rect1451"
           style="opacity:0.924;fill:#020001;fill-opacity:1;fill-rule:evenodd;stroke:none;stroke-width:1.0001;stroke-linecap:round;stroke-linejoin:miter;stroke-miterlimit:4;stroke-dasharray:none;stroke-dashoffset:0;stroke-opacity:0.8785;paint-order:normal"
           transform="rotate(90)" />
        <rect
           transform="rotate(90)"
           style="opacity:0.924;fill:#020001;fill-opacity:1;fill-rule:evenodd;stroke:none;stroke-width:1.0001;stroke-linecap:round;stroke-linejoin:miter;stroke-miterlimit:4;stroke-dasharray:none;stroke-dashoffset:0;stroke-opacity:0.8785;paint-order:normal"
           id="rect1453"
           width="15"
           height="1"
           x="293.2"
           y="-3.35" />
        <rect
           transform="scale(-1)"
           y="-310.2"
           x="-24.35"
           height="1"
           width="22"
           id="rect1455"
           style="opacity:0.924;fill:url(#linearGradient894);fill-opacity:1.0;fill-rule:evenodd;stroke:none;stroke-width:1.0001;stroke-linecap:round;stroke-linejoin:miter;stroke-miterlimit:4;stroke-dasharray:none;stroke-dashoffset:0;stroke-opacity:0.8785;paint-order:normal" />
        <rect
           y="-309.2"
           x="-24.36"
           height="1"
           width="22"
           id="rect1457"
           style="opacity:0.924;fill:#020001;fill-opacity:1;fill-rule:evenodd;stroke:none;stroke-width:1.0002;stroke-linecap:round;stroke-linejoin:miter;stroke-miterlimit:4;stroke-dasharray:none;stroke-dashoffset:0;stroke-opacity:0.8785;paint-order:normal"
           transform="scale(-1)" />
        <rect
           style="opacity:0.924;fill:#646464;fill-opacity:1;fill-rule:evenodd;stroke:none;stroke-width:1.0001;stroke-linecap:round;stroke-linejoin:miter;stroke-miterlimit:4;stroke-dasharray:none;stroke-dashoffset:0;stroke-opacity:0.8785;paint-order:normal"
           id="rect1465"
           width="20"
           height="1"
           x="3.35"
           y="307.2" />
      </g>
      <rect
         transform="rotate(45)"
         ry="0"
         rx="0"
         y="224.1"
         x="172.8"
         height="5.784"
         width="5.784"
         id="rect1461"
         style="opacity:1;fill:none;fill-opacity:1;fill-rule:nonzero;stroke:#e8e8e8;stroke-width:1.75;stroke-linecap:square;stroke-linejoin:miter;stroke-miterlimit:4;stroke-dasharray:none;stroke-dashoffset:0;stroke-opacity:1" />
    </g>
    <g
       id="inactive-center"
       transform="translate(-3.536,-4.546)">
      <g
         id="g1487"
         transform="translate(-18.46,-18.22)">
        <g
           id="g1469">
          <rect
             style="opacity:1;fill:#7c7c7c;fill-opacity:0.2103;fill-rule:nonzero;stroke:none;stroke-width:0.2419;stroke-linecap:square;stroke-linejoin:round;stroke-miterlimit:4;stroke-dasharray:none;stroke-dashoffset:0;stroke-opacity:1"
             id="rect1467"
             width="24"
             height="18"
             x="1.347"
             y="292.2" />
        </g>
        <rect
           y="292.2"
           x="1.347"
           height="1"
           width="24"
           id="rect1471"
           style="opacity:0.924;fill:#020001;fill-opacity:1;fill-rule:evenodd;stroke:none;stroke-width:1.0001;stroke-linecap:round;stroke-linejoin:miter;stroke-miterlimit:4;stroke-dasharray:none;stroke-dashoffset:0;stroke-opacity:0.8785;paint-order:normal" />
        <rect
           transform="rotate(90)"
           y="-25.35"
           x="293.2"
           height="1"
           width="17"
           id="rect1475"
           style="opacity:0.924;fill:#7c7c7c;fill-opacity:1;fill-rule:evenodd;stroke:none;stroke-width:1.0002;stroke-linecap:round;stroke-linejoin:miter;stroke-miterlimit:4;stroke-dasharray:none;stroke-dashoffset:0;stroke-opacity:0.8785;paint-order:normal" />
        <rect
           style="opacity:0.924;fill:#7c7c7c;fill-opacity:1;fill-rule:evenodd;stroke:none;stroke-width:1.0002;stroke-linecap:round;stroke-linejoin:miter;stroke-miterlimit:4;stroke-dasharray:none;stroke-dashoffset:0;stroke-opacity:0.8785;paint-order:normal"
           id="rect1477"
           width="17"
           height="1"
           x="293.2"
           y="-2.347"
           transform="rotate(90)" />
        <rect
           transform="rotate(90)"
           style="opacity:0.924;fill:#020001;fill-opacity:1;fill-rule:evenodd;stroke:none;stroke-width:1.0001;stroke-linecap:round;stroke-linejoin:miter;stroke-miterlimit:4;stroke-dasharray:none;stroke-dashoffset:0;stroke-opacity:0.8785;paint-order:normal"
           id="rect1479"
           width="15"
           height="1"
           x="293.2"
           y="-24.35" />
        <rect
           y="-3.35"
           x="293.2"
           height="1"
           width="15"
           id="rect1481"
           style="opacity:0.924;fill:#020001;fill-opacity:1;fill-rule:evenodd;stroke:none;stroke-width:1.0001;stroke-linecap:round;stroke-linejoin:miter;stroke-miterlimit:4;stroke-dasharray:none;stroke-dashoffset:0;stroke-opacity:0.8785;paint-order:normal"
           transform="rotate(90)" />
        <rect
           style="opacity:0.924;fill:#7c7c7c;fill-opacity:1;fill-rule:evenodd;stroke:none;stroke-width:1.0001;stroke-linecap:round;stroke-linejoin:miter;stroke-miterlimit:4;stroke-dasharray:none;stroke-dashoffset:0;stroke-opacity:0.8785;paint-order:normal"
           id="rect1483"
           width="22"
           height="1"
           x="-24.35"
           y="-310.2"
           transform="scale(-1)" />
        <rect
           transform="scale(-1)"
           style="opacity:0.924;fill:#020001;fill-opacity:1;fill-rule:evenodd;stroke:none;stroke-width:1.0002;stroke-linecap:round;stroke-linejoin:miter;stroke-miterlimit:4;stroke-dasharray:none;stroke-dashoffset:0;stroke-opacity:0.8785;paint-order:normal"
           id="rect1485"
           width="22"
           height="1"
           x="-24.36"
           y="-309.2" />
      </g>
      <rect
         transform="rotate(45)"
         style="opacity:0.568;fill:none;fill-opacity:1;fill-rule:nonzero;stroke:#e8e8e8;stroke-width:1.75;stroke-linecap:square;stroke-linejoin:miter;stroke-miterlimit:4;stroke-dasharray:none;stroke-dashoffset:0;stroke-opacity:0.729"
         id="rect1489"
         width="5.784"
         height="5.784"
         x="193.6"
         y="200.8"
         rx="0"
         ry="0" />
    </g>
    <rect
       style="opacity:1;fill:none;fill-opacity:0.8505;fill-rule:evenodd;stroke:none;stroke-width:1.75;stroke-linecap:round;stroke-linejoin:miter;stroke-miterlimit:4;stroke-dasharray:none;stroke-dashoffset:0;stroke-opacity:1;paint-order:normal"
       id="deactivated-center"
       width="24"
       height="18"
       x="-41.35"
       y="314" />
  </g>
</svg>
